{
  "variable": {
    "duration": {
      "default": "1"
    }
  },
  "data": {
    "external": {
      "pause": {
        "program": ["bash", "-c", "sleep ${var.duration}; echo '{\"arg\":\"abc\"}'"]
      }
    }
  }
}
